name="Mega Structures Requirements"
tags={
	"Gameplay"
	"Buildings"
}
picture="megastructuresrequirements.png"
supported_version="2.7.*"
path="C:/Users/Alexa/Documents/Paradox Interactive/Stellaris/mod/mestrctreq"
remote_file_id="909840371"